Efektivní a přehledná práce s daty v prostředí jazyka R
…
`Cmd/Ctrl + Shift + M`

---
## Srovnání práce v 'base' R a tidyverse

.pull-left[

```r
x <- gdta[gdta$zmena < -45,]
x <- x[,c("kategorie", "zmena")]
x
```

```
# A tibble: 32,343 x 2
   kategorie             zmena
   <chr>                 <dbl>
 1 retail_and_recreation   -56
 2 retail_and_recreation   -57
 3 retail_and_recreation   -61
 4 transit_stations        -50
 5 retail_and_recreation   -65
 6 transit_stations        -56
 7 retail_and_recreation   -65
 8 transit_stations        -55
 9 retail_and_recreation   -67
10 transit_stations        -58
# … with 32,333 more rows
```
]

.pull-right[

```r
gdta %>% 
  filter(zmena < -45) %>% 
  select(kategorie, zmena)
```

```
# A tibble: 8,731 x 2
   kategorie             zmena
   <chr>                 <dbl>
 1 retail_and_recreation   -56
 2 retail_and_recreation   -57
 3 retail_and_recreation   -61
 4 transit_stations        -50
 5 retail_and_recreation   -65
 6 transit_stations        -56
 7 retail_and_recreation   -65
 8 transit_stations        -55
 9 retail_and_recreation   -67
10 transit_stations        -58
# … with 8,721 more rows
```
…
---

count: false

.panel1-tidyverse-priklad-auto[

```r
*gdta
```
]
 
.panel2-tidyverse-priklad-auto[

```
# A tibble: 141,936 x 5
   sub_region_1 kategorie             zmena date       country_region
   <chr>        <chr>                 <dbl> <date>     <chr>         
 1 <NA>         retail_and_recreation    13 2020-02-15 Czechia       
 2 <NA>         grocery_and_pharmacy      8 2020-02-15 Czechia       
 3 <NA>         parks                    37 2020-02-15 Czechia       
 4 <NA>         transit_stations         14 2020-02-15 Czechia       
 5 <NA>         workplaces                3 2020-02-15 Czechia       
 6 <NA>         residential              -2 2020-02-15 Czechia       
 7 <NA>         retail_and_recreation    12 2020-02-16 Czechia       
 8 <NA>         grocery_and_pharmacy      8 2020-02-16 Czechia       
 9 <NA>         parks                    28 2020-02-16 Czechia       
10 <NA>         transit_stations          9 2020-02-16 Czechia       
# … with 141,926 more rows
```
…
---
count: false

.panel1-tidyverse-priklad-auto[

```r
gdta %>%
* select(-country_region)
```
]
 
.panel2-tidyverse-priklad-auto[

```
# A tibble: 141,936 x 4
   sub_region_1 kategorie             zmena date      
   <chr>        <chr>                 <dbl> <date>    
 1 <NA>         retail_and_recreation    13 2020-02-15
 2 <NA>         grocery_and_pharmacy      8 2020-02-15
 3 <NA>         parks                    37 2020-02-15
 4 <NA>         transit_stations         14 2020-02-15
 5 <NA>         workplaces                3 2020-02-15
 6 <NA>         residential              -2 2020-02-15
 7 <NA>         retail_and_recreation    12 2020-02-16
 8 <NA>         grocery_and_pharmacy      8 2020-02-16
 9 <NA>         parks                    28 2020-02-16
10 <NA>         transit_stations          9 2020-02-16
# … with 141,926 more rows
```
…
.panel1-tidyverse-priklad-auto[

```r
gdta %>%
  select(-country_region) %>%
* rename(kraj_nazev = sub_region_1)
```
]
 
.panel2-tidyverse-priklad-auto[

```
# A tibble: 141,936 x 4
   kraj_nazev kategorie             zmena date      
   <chr>      <chr>                 <dbl> <date>    
 1 <NA>       retail_and_recreation    13 2020-02-15
 2 <NA>       grocery_and_pharmacy      8 2020-02-15
 3 <NA>       parks                    37 2020-02-15
 4 <NA>       transit_stations         14 2020-02-15
 5 <NA>       workplaces                3 2020-02-15
 6 <NA>       residential              -2 2020-02-15
 7 <NA>       retail_and_recreation    12 2020-02-16
 8 <NA>       grocery_and_pharmacy      8 2020-02-16
 9 <NA>       parks                    28 2020-02-16
10 <NA>       transit_stations          9 2020-02-16
# … with 141,926 more rows
```
…
.panel1-tidyverse-priklad-auto[

```r
gdta %>%
  select(-country_region) %>%
  rename(kraj_nazev = sub_region_1) %>%
* filter(date > "2020-10-01")
```
]
 
.panel2-tidyverse-priklad-auto[

```
# A tibble: 18,018 x 4
   kraj_nazev kategorie             zmena date      
   <chr>      <chr>                 <dbl> <date>    
 1 <NA>       retail_and_recreation   -10 2020-10-02
 2 <NA>       grocery_and_pharmacy     13 2020-10-02
 3 <NA>       parks                    26 2020-10-02
 4 <NA>       transit_stations         -2 2020-10-02
 5 <NA>       workplaces               -7 2020-10-02
 6 <NA>       residential               0 2020-10-02
 7 <NA>       retail_and_recreation   -10 2020-10-03
 8 <NA>       grocery_and_pharmacy      8 2020-10-03
 9 <NA>       parks                    66 2020-10-03
10 <NA>       transit_stations          1 2020-10-03
# … with 18,008 more rows
```
…
.panel1-tidyverse-priklad-auto[

```r
gdta %>%
  select(-country_region) %>%
  rename(kraj_nazev = sub_region_1) %>%
  filter(date > "2020-10-01") %>%
* mutate(zmena_dec = zmena/100)
```
]
 
.panel2-tidyverse-priklad-auto[

```
# A tibble: 18,018 x 5
   kraj_nazev kategorie             zmena date       zmena_dec
   <chr>      <chr>                 <dbl> <date>         <dbl>
 1 <NA>       retail_and_recreation   -10 2020-10-02     -0.1 
 2 <NA>       grocery_and_pharmacy     13 2020-10-02      0.13
 3 <NA>       parks                    26 2020-10-02      0.26
 4 <NA>       transit_stations         -2 2020-10-02     -0.02
 5 <NA>       workplaces               -7 2020-10-02     -0.07
 6 <NA>       residential               0 2020-10-02      0   
 7 <NA>       retail_and_recreation   -10 2020-10-03     -0.1 
 8 <NA>       grocery_and_pharmacy      8 2020-10-03      0.08
 9 <NA>       parks                    66 2020-10-03      0.66
10 <NA>       transit_stations          1 2020-10-03      0.01
# … with 18,008 more rows
```
…
```r
gdta %>%
  select(-country_region) %>%
  rename(kraj_nazev = sub_region_1) %>%
  filter(date > "2020-10-01") %>%
  mutate(zmena_dec = zmena/100) %>%
* select(-zmena)
```
]
 
.panel2-tidyverse-priklad-auto[

```
# A tibble: 18,018 x 4
   kraj_nazev kategorie             date       zmena_dec
   <chr>      <chr>                 <date>         <dbl>
 1 <NA>       retail_and_recreation 2020-10-02     -0.1 
 2 <NA>       grocery_and_pharmacy  2020-10-02      0.13
 3 <NA>       parks                 2020-10-02      0.26
 4 <NA>       transit_stations      2020-10-02     -0.02
 5 <NA>       workplaces            2020-10-02     -0.07
 6 <NA>       residential           2020-10-02      0   
 7 <NA>       retail_and_recreation 2020-10-03     -0.1 
 8 <NA>       grocery_and_pharmacy  2020-10-03      0.08
 9 <NA>       parks                 2020-10-03      0.66
10 <NA>       transit_stations      2020-10-03      0.01
# … with 18,008 more rows
```
…
```r
gdta %>%
  select(-country_region) %>%
  rename(kraj_nazev = sub_region_1) %>%
  filter(date > "2020-10-01") %>%
  mutate(zmena_dec = zmena/100) %>%
  select(-zmena) %>%
* group_by(kraj_nazev, kategorie)
```
]
 
.panel2-tidyverse-priklad-auto[

```
# A tibble: 18,018 x 4
# Groups:   kraj_nazev, kategorie [90]
   kraj_nazev kategorie             date       zmena_dec
   <chr>      <chr>                 <date>         <dbl>
 1 <NA>       retail_and_recreation 2020-10-02     -0.1 
 2 <NA>       grocery_and_pharmacy  2020-10-02      0.13
 3 <NA>       parks                 2020-10-02      0.26
 4 <NA>       transit_stations      2020-10-02     -0.02
 5 <NA>       workplaces            2020-10-02     -0.07
 6 <NA>       residential           2020-10-02      0   
 7 <NA>       retail_and_recreation 2020-10-03     -0.1 
 8 <NA>       grocery_and_pharmacy  2020-10-03      0.08
 9 <NA>       parks                 2020-10-03      0.66
10 <NA>       transit_stations      2020-10-03      0.01
# … with 18,008 more rows
```
…
.panel2-tidyverse-priklad-auto[

```
# A tibble: 18,018 x 6
# Groups:   kraj_nazev, kategorie [90]
   kraj_nazev kategorie             date       zmena_dec zmena_min zmena_max
   <chr>      <chr>                 <date>         <dbl>     <dbl>     <dbl>
 1 <NA>       retail_and_recreation 2020-10-02     -0.1      -0.79     -0.03
 2 <NA>       grocery_and_pharmacy  2020-10-02      0.13     -0.85      0.27
 3 <NA>       parks                 2020-10-02      0.26     -0.36      0.66
 4 <NA>       transit_stations      2020-10-02     -0.02     -0.56      0.01
 5 <NA>       workplaces            2020-10-02     -0.07     -0.74      0.05
 6 <NA>       residential           2020-10-02      0        -0.02      0.26
 7 <NA>       retail_and_recreation 2020-10-03     -0.1      -0.79     -0.03
 8 <NA>       grocery_and_pharmacy  2020-10-03      0.08     -0.85      0.27
 9 <NA>       parks                 2020-10-03      0.66     -0.36      0.66
10 <NA>       transit_stations      2020-10-03      0.01     -0.56      0.01
# … with 18,008 more rows
```
…
.panel2-tidyverse-priklad-auto[

```
# A tibble: 90 x 3
# Groups:   kraj_nazev [15]
   kraj_nazev              kategorie             zmena_p
   <chr>                   <chr>                   <dbl>
 1 Central Bohemian Region grocery_and_pharmacy   0.0648
 2 Central Bohemian Region parks                  0.264 
 3 Central Bohemian Region residential            0.0976
 4 Central Bohemian Region retail_and_recreation -0.232 
 5 Central Bohemian Region transit_stations      -0.0174
 6 Central Bohemian Region workplaces            -0.183 
 7 Hradec Králové Region   grocery_and_pharmacy   0.0126
 8 Hradec Králové Region   parks                  0.197 
 9 Hradec Králové Region   residential            0.0872
10 Hradec Králové Region   retail_and_recreation -0.325 
# … with 80 more rows
```
…
.panel2-tidyverse-priklad-auto[

```
# A tibble: 90 x 3
   kraj_nazev              kategorie             zmena_p
   <chr>                   <chr>                   <dbl>
 1 Central Bohemian Region grocery_and_pharmacy   0.0648
 2 Central Bohemian Region parks                  0.264 
 3 Central Bohemian Region residential            0.0976
 4 Central Bohemian Region retail_and_recreation -0.232 
 5 Central Bohemian Region transit_stations      -0.0174
 6 Central Bohemian Region workplaces            -0.183 
 7 Hradec Králové Region   grocery_and_pharmacy   0.0126
 8 Hradec Králové Region   parks                  0.197 
 9 Hradec Králové Region   residential            0.0872
10 Hradec Králové Region   retail_and_recreation -0.325 
# … with 80 more rows
```
…
.panel2-tidyverse-priklad-auto[

```
# A tibble: 90 x 3
   kraj_nazev               kategorie             zmena_p
   <chr>                    <chr>                   <dbl>
 1 Prague                   grocery_and_pharmacy -0.0333 
 2 Zlín Region              grocery_and_pharmacy -0.0203 
 3 Karlovy Vary Region      grocery_and_pharmacy  0.00318
 4 Hradec Králové Region    grocery_and_pharmacy  0.0126 
 5 <NA>                     grocery_and_pharmacy  0.0136 
 6 Moravian-Silesian Region grocery_and_pharmacy  0.0241 
 7 South Bohemian Region    grocery_and_pharmacy  0.0289 
 8 Liberec Region           grocery_and_pharmacy  0.0359 
 9 Olomouc Region           grocery_and_pharmacy  0.0388 
10 Plzeň Region             grocery_and_pharmacy  0.0455 
# … with 80 more rows
```
…
.panel2-tidyverse-priklad-auto[

```
# A tibble: 90 x 3
   kraj_nazev               kategorie            zmena_p
   <chr>                    <chr>                  <dbl>
 1 South Moravian Region    grocery_and_pharmacy  0.0766
 2 Ústí nad Labem Region    grocery_and_pharmacy  0.0682
 3 Central Bohemian Region  grocery_and_pharmacy  0.0648
 4 Vysočina Region          grocery_and_pharmacy  0.0616
 5 Pardubice Region         grocery_and_pharmacy  0.0515
 6 Plzeň Region             grocery_and_pharmacy  0.0455
 7 Olomouc Region           grocery_and_pharmacy  0.0388
 8 Liberec Region           grocery_and_pharmacy  0.0359
 9 South Bohemian Region    grocery_and_pharmacy  0.0289
10 Moravian-Silesian Region grocery_and_pharmacy  0.0241
# … with 80 more rows
```
…
